Modelo Riesgo Climático
…
  write_csv(
    renta_nacional_anio,
    ruta_renta_nacional_processed
  )
}

# Comprobacion provincial 2023
renta_provincia_anio %>%
  filter(anio == 2023) %>%
  arrange(renta_neta_media_persona) %>%
  select(cod_provincia, provincia, anio, renta_neta_media_persona)

# A tibble: 52 × 4
   cod_provincia provincia         anio renta_neta_media_persona
   <chr>         <chr>            <dbl>                    <dbl>
 1 04            Almería           2023                    11543
 2 23            Jaén              2023                    11847
 3 21            Huelva            2023                    12008
 4 06            Badajoz           2023                    12068
 5 03            Alacant/Alicante  2023                    12313
 6 11            Cádiz             2023                    12335
 7 14            Córdoba           2023                    12386
 8 45            Toledo            2023                    12422
 9 30            Murcia            2023                    12446
10 13            Ciudad Real       2023                    12529
# ℹ 42 more rows
…
  write_csv(
    poblacion_nacional_anio,
    ruta_poblacion_nacional_processed
  )
}

New names:
• `` -> `...1`

Warning: There was 1 warning in `mutate()`.
ℹ In argument: `anio_aux = if_else(...)`.
Caused by warning in `vec_if_else()`:
! NAs introduced by coercion

# A tibble: 25 × 3
    anio provincias poblacion_total_provincias
   <int>      <int>                      <dbl>
 1  2021         52                   47385107
 2  2020         52                   47450795
 3  2019         52                   47026208
 4  2018         52                   46722980
 5  2017         52                   46572132
 6  2016         52                   46557008
 7  2015         52                   46624382
 8  2014         52                   46771341
 9  2013         52                   47129783
10  2012         52                   47265321
# ℹ 15 more rows
…
    observaciones = n(),
    poblacion_ok = sum(!is.na(poblacion)),
    hipotecas_ok = sum(!is.na(numero_hipotecas_vivienda)),
    precio_ok = sum(!is.na(precio_vivienda_libre_eur_m2)),
    ejecuciones_ok = sum(!is.na(ejecuciones_hipotecarias_vivienda)),
    epa_ok = sum(!is.na(tasa_paro)),
    renta_ok = sum(!is.na(renta_neta_media_persona)),
    pd_proxy_ok = sum(!is.na(pd_proxy_hipotecaria_1000)),
    ltv_proxy_ok = sum(!is.na(ltv_proxy_90m2)),
    lgd_proxy_ok = sum(!is.na(lgd_shortfall_proxy_90m2)),
    .groups = "drop"
  ) %>%
  arrange(desc(anio))

# A tibble: 25 × 12
    anio provincias observaciones poblacion_ok hipotecas_ok precio_ok
   <dbl>      <int>         <int>        <int>        <int>     <int>
 1  2021         52            52           52           52        52
 2  2020         52            52           52           52        52
 3  2019         52            52           52           52        52
 4  2018         52            52           52           52        51
 5  2017         52            52           52           52        51
 6  2016         52            52           52           52        51
 7  2015         52            52           52           52        51
 8  2014         52            52           52           52        52
 9  2013         52            52           52           52        52
10  2012         52            52           52           52        52
# ℹ 15 more rows
# ℹ 6 more variables: ejecuciones_ok <int>, epa_ok <int>, renta_ok <int>,
#   pd_proxy_ok <int>, ltv_proxy_ok <int>, lgd_proxy_ok <int>
…
    exposicion_inundacion_t100_pct,
    numero_hipotecas_vivienda,
    hipotecas_por_1000_habitantes,
    ejecuciones_hipotecarias_vivienda,
    pd_proxy_hipotecaria_1000,
    precio_vivienda_libre_eur_m2,
    importe_medio_hipoteca_eur,
    ltv_proxy_90m2,
    lgd_shortfall_proxy_90m2,
    perdida_esperada_proxy_90m2_eur,
    tasa_paro,
    renta_neta_media_persona
  ) %>%head(30)

# A tibble: 30 × 16
   cod_provincia provincia         anio poblacion exposicion_inundacion_t100_pct
   <chr>         <chr>            <dbl>     <dbl>                          <dbl>
 1 01            Araba/Álava       2021    333626                          1.39 
 2 02            Albacete          2021    386464                          0.710
 3 03            Alacant/Alicante  2021   1881762                          3.71 
 4 04            Almería           2021    731792                          0.703
 5 05            Ávila             2021    158421                          0.650
 6 06            Badajoz           2021    669943                          1.91 
 7 07            Illes Balears     2021   1173008                          0.446
 8 08            Barcelona         2021   5714730                          1.92 
 9 09            Burgos            2021    356055                          1.45 
10 10            Cáceres           2021    389558                          0.640
# ℹ 20 more rows
# ℹ 11 more variables: numero_hipotecas_vivienda <dbl>,
#   hipotecas_por_1000_habitantes <dbl>,
#   ejecuciones_hipotecarias_vivienda <dbl>, pd_proxy_hipotecaria_1000 <dbl>,
#   precio_vivienda_libre_eur_m2 <dbl>, importe_medio_hipoteca_eur <dbl>,
#   ltv_proxy_90m2 <dbl>, lgd_shortfall_proxy_90m2 <dbl>,
#   perdida_esperada_proxy_90m2_eur <dbl>, tasa_paro <dbl>, …
…
